<?xml version="1.0" encoding="UTF-8"?>
<svg width="41px" height="41px" viewBox="0 0 41 41" version="1.1" xmlns="http://www.w3.org/2000/svg" xmlns:xlink="http://www.w3.org/1999/xlink">
    <title>Group 4</title>
    <defs>
        <rect id="path-1" x="0" y="0" width="18.5714283" height="18.5714283"></rect>
    </defs>
    <g id="🔥-Dashboard-default" stroke="none" stroke-width="1" fill="none" fill-rule="evenodd">
        <g id="Dashboard-sales-/-Tablet" transform="translate(-194.000000, -332.000000)">
            <g id="Card-3" transform="translate(177.000000, 321.818115)">
                <g id="Group-4" transform="translate(17.454590, 10.909180)">
                    <path d="M20,40 C31.045695,40 40,31.045695 40,20 C40,8.954305 31.045695,0 20,0 C8.954305,0 0,8.954305 0,20 C0,31.045695 8.954305,40 20,40 Z" id="Ellipse-1" fill="#FFF3DC"></path>
                    <g id="bi:cash-stack" transform="translate(10.789587, 10.789797)">
                        <mask id="mask-2" fill="white">
                            <use xlink:href="#path-1"></use>
                        </mask>
                        <g id="bi:cash-stack-(Background/Mask)" transform="translate(9.285714, 9.285714) rotate(-35.000000) translate(-9.285714, -9.285714) "></g>
                        <g id="Group" mask="url(#mask-2)" fill="#FFCE73">
                            <g transform="translate(0.000027, 2.321437)" id="Vector">
                                <path d="M-0.890963033,6.00301475 C-0.83750709,5.69985097 -0.665809147,5.43033929 -0.413640908,5.25376918 L10.9959768,-2.73533123 C11.2481451,-2.91190133 11.5601271,-2.98106604 11.8632909,-2.92761008 C12.1664547,-2.87415411 12.4359666,-2.70245631 12.6125367,-2.45028805 L-0.698683974,6.87032909 C-0.875254089,6.61816083 -0.944418976,6.30617853 -0.890963033,6.00301475 Z M12.2376371,8.31794156 C12.344549,7.711614 12.20622,7.08764953 11.8530798,6.58331302 C11.4999396,6.07897651 10.9609157,5.7355809 10.3545882,5.62866897 C9.74826062,5.52175705 9.12429649,5.66008647 8.61996001,6.01322667 C8.11562353,6.36636688 7.77222765,6.90539024 7.66531576,7.51171781 C7.55840387,8.11804537 7.69673365,8.74200998 8.04987388,9.24634649 C8.40301411,9.750683 8.94203716,10.0940785 9.54836472,10.2009904 C10.1546923,10.3079023 10.7786572,10.169573 11.2829937,9.81643283 L11.2829937,9.81643283 C11.7873301,9.46329262 12.1307252,8.92426913 12.2376371,8.31794156 Z"></path>
                                <path d="M-0.510225464,8.57064193 C-0.456769542,8.26747812 -0.285071829,7.99796624 -0.0329035929,7.82139614 L13.2783169,-1.49922087 C13.5304851,-1.67579097 13.8424674,-1.74495543 14.1456312,-1.69149944 C14.4487949,-1.63804345 14.7183067,-1.46634584 14.8948769,-1.21417754 L20.2209449,6.39223588 C20.3975151,6.64440417 20.4666796,6.95638644 20.4132237,7.25955025 C20.3597678,7.56271406 20.1880702,7.83222581 19.935902,8.00879592 L6.62468149,17.3294129 C6.37251325,17.505983 6.06053085,17.5751476 5.75736706,17.5216916 C5.45420326,17.4682356 5.18469166,17.2965379 5.00812152,17.0443696 L-0.317946548,9.43795618 C-0.494516689,9.18578789 -0.563681386,8.87380574 -0.510225464,8.57064193 Z M2.9190161,9.17530998 C2.81210426,9.78163759 2.4687084,10.320661 1.96437193,10.6738012 L4.62740596,14.4770079 C5.13174244,14.1238677 5.75570735,13.9855384 6.36203494,14.0924504 C6.96836253,14.1993624 7.50738562,14.5427579 7.86052591,15.0470945 L17.3685405,8.38951095 C17.0154003,7.88517437 16.8770712,7.26120983 16.983983,6.65488222 C17.0908949,6.0485546 17.43429,5.50953108 17.9386265,5.15639088 L15.2755924,1.35318417 C14.7712559,1.70632437 14.1472918,1.84465376 13.5409642,1.73774178 C12.9346366,1.63082979 12.3956128,1.28743411 12.0424725,0.783097528 L2.53445784,7.44068111 C2.88759812,7.94501769 3.02592795,8.56898236 2.9190161,9.17530998 Z"></path>
                            </g>
                        </g>
                    </g>
                </g>
            </g>
        </g>
    </g>
</svg>