<?xml version="1.0" encoding="UTF-8"?>
<svg width="41px" height="41px" viewBox="0 0 41 41" version="1.1" xmlns="http://www.w3.org/2000/svg" xmlns:xlink="http://www.w3.org/1999/xlink">
    <title>Group 4</title>
    <defs>
        <rect id="path-1" x="0" y="0" width="20" height="20"></rect>
    </defs>
    <g id="🔥-Dashboard-default" stroke="none" stroke-width="1" fill="none" fill-rule="evenodd">
        <g id="Dashboard-sales-/-Tablet" transform="translate(-381.000000, -332.000000)">
            <g id="Card-4" transform="translate(363.848511, 321.818115)">
                <g id="Group-4" transform="translate(17.333252, 10.909180)">
                    <path d="M20,40 C31.045695,40 40,31.045695 40,20 C40,8.954305 31.045695,0 20,0 C8.954305,0 0,8.954305 0,20 C0,31.045695 8.954305,40 20,40 Z" id="Ellipse-1" fill="#FFEBF6"></path>
                    <g id="ant-design:pie-chart-filled" transform="translate(10.000122, 9.285645)">
                        <mask id="mask-2" fill="white">
                            <use xlink:href="#path-1"></use>
                        </mask>
                        <g id="ant-design:pie-chart-filled-(Background/Mask)"></g>
                        <path d="M9.87304711,10.1269366 L9.87304711,3.14256101 C9.87304711,3.0566235 9.80273461,2.986311 9.71679711,2.986311 L9.20898459,2.986311 C8.18414707,2.98526465 7.16918864,3.1865894 6.22234358,3.57873413 C5.27549851,3.97087886 4.41540324,4.5461252 3.69140631,5.27146759 C2.97858071,5.98208793 2.4107496,6.8245475 2.0195313,7.75193625 C1.6132813,8.71482694 1.40625,9.73631153 1.40625,10.7909991 C1.40625,11.8456867 1.6132813,12.8652187 2.0195313,13.8281093 C2.41210944,14.7558438 2.9746094,15.5917814 3.69140631,16.3085783 C4.40820322,17.0253753 5.24218764,17.5878748 6.17187513,17.980453 C7.13308365,18.3882396 8.16680741,18.5975089 9.21093784,18.5956993 C10.2357754,18.5967337 11.2507332,18.3954096 12.1975783,18.0032649 C13.1444233,17.6111201 14.0045186,17.0358733 14.7285155,16.3105309 C15.4453124,15.593734 16.0078131,14.7597495 16.4003913,13.830062 C16.8081779,12.8688534 17.0174471,11.8351296 17.0156257,10.7909991 L17.0156257,10.2831866 C17.0136725,10.1972491 16.9433593,10.1269366 16.8574218,10.1269366 L9.87304711,10.1269366 Z M18.5234385,8.49217057 C18.3574228,6.69529542 17.5605471,4.99998316 16.2753908,3.72068618 C14.9914276,2.43780279 13.2994826,1.64399074 11.4921883,1.47654534 L10.9394529,1.42576412 C10.847656,1.41795161 10.769532,1.48826415 10.769532,1.58006103 L10.769532,9.07420222 C10.769532,9.16013973 10.8398445,9.23045223 10.925782,9.23045223 L18.4179692,9.21092098 C18.5097661,9.20896786 18.5820317,9.13279585 18.5742192,9.0429521 L18.5234385,8.49217057 Z" id="Vector" fill="#FFA2C0" mask="url(#mask-2)"></path>
                    </g>
                </g>
            </g>
        </g>
    </g>
</svg>